…
> ## TO find summaries
> 
> select(penguins)
# A tibble: 344 x 0
> 
> 
> ## i want to select all rows
> ## excepy year
> penguins%>%
+ select(-sex)
# A tibble: 344 x 7
   species island    bill_length_mm bill_depth_mm flipper_length_mm body_mass_g  year
   <fct>   <fct>              <dbl>         <dbl>             <int>       <int> <int>
 1 Adelie  Torgersen           39.1          18.7               181        3750  2007
 2 Adelie  Torgersen           39.5          17.4               186        3800  2007
 3 Adelie  Torgersen           40.3          18                 195        3250  2007
 4 Adelie  Torgersen           NA            NA                  NA          NA  2007
 5 Adelie  Torgersen           36.7          19.3               193        3450  2007
 6 Adelie  Torgersen           39.3          20.6               190        3650  2007
 7 Adelie  Torgersen           38.9          17.8               181        3625  2007
 8 Adelie  Torgersen           39.2          19.6               195        4675  2007
 9 Adelie  Torgersen           34.1          18.1               193        3475  2007
10 Adelie  Torgersen           42            20.2               190        4250  2007
# … with 334 more rows
